run_result/rj_top.vcd
$date
	Sat Mar 15 00:30:36 2025
$end
$version
	QuestaSim Version 2024.2
$end
$timescale
	1ps
$end

$scope module rj_top $end

$scope module dut01 $end
$upscope $end

$scope module my_intf_tx $end
$var reg 2 ! rj_lane [1:0] $end

$scope task gen_tx_clk $end
$upscope $end
$upscope $end

$scope module my_intf_rx $end
$var reg 2 " rj_lane [1:0] $end
$upscope $end
$upscope $end
$enddefinitions $end
#0
$dumpvars
b0x !
b0x "
$end
#50
b1x !
b1x "
b11 !
b11 "
#100
b1 !
b1 "
#150
b11 !
b11 "
#200
b1 !
b1 "
#250
b11 !
b11 "
#300
b1 !
b1 "
#350
b11 !
b11 "
#400
b1 !
b1 "
#450
b11 !
b11 "
#500
b1 !
b1 "
#550
b11 !
b11 "
#600
b1 !
b1 "
#650
b11 !
b11 "
#700
b1 !
b1 "
#750
b11 !
b11 "
#800
b1 !
b1 "
#850
b11 !
b11 "
b10 !
b10 "
#900
b0 !
b0 "
#950
b10 !
b10 "
#1000
b0 !
b0 "
#1050
b10 !
b10 "
b11 !
b11 "
#1100
b1 !
b1 "
#1150
b11 !
b11 "
#1200
b1 !
b1 "
#1250
b11 !
b11 "
b10 !
b10 "
#1300
b0 !
b0 "
#1350
b10 !
b10 "
#1400
b0 !
b0 "
#1450
b10 !
b10 "
b11 !
b11 "
#1500
b1 !
b1 "
#1550
b11 !
b11 "
#1600
b1 !
b1 "
#1650
b11 !
b11 "
#1700
b1 !
b1 "
#1750
b11 !
b11 "
b10 !
b10 "
#1800
b0 !
b0 "
#1850
b10 !
b10 "
#1900
b0 !
b0 "
#1950
b10 !
b10 "
b11 !
b11 "
#2000
b1 !
b1 "
#2050
b11 !
b11 "
b10 !
b10 "
#2100
b0 !
b0 "
#2150
b10 !
b10 "
b11 !
b11 "
#2200
b1 !
b1 "
#2250
b11 !
b11 "
b10 !
b10 "
#2300
b0 !
b0 "
#2350
b10 !
b10 "
#2400
b0 !
b0 "
#2450
b10 !
b10 "
b11 !
b11 "
#2500
b1 !
b1 "
#2550
b11 !
b11 "
#2600
b1 !
b1 "
#2650
b11 !
b11 "
b10 !
b10 "
#2700
b0 !
b0 "
#2750
b10 !
b10 "
b11 !
b11 "
#2800
b1 !
b1 "
#2850
b11 !
b11 "
#2900
b1 !
b1 "
#2950
b11 !
b11 "
b10 !
b10 "
#3000
b0 !
b0 "
#3050
b10 !
b10 "
#3100
b0 !
b0 "
#3150
b10 !
b10 "
b11 !
b11 "
#3200
b1 !
b1 "
#3250
b11 !
b11 "
b10 !
b10 "
#3300
b0 !
b0 "
#3350
b10 !
b10 "
#3400
b0 !
b0 "
#3450
b10 !
b10 "
b11 !
b11 "
#3500
b1 !
b1 "
#3550
b11 !
b11 "
b10 !
b10 "
#3600
b0 !
b0 "
#3650
b10 !
b10 "
b11 !
b11 "
#3700
b1 !
b1 "
#3750
b11 !
b11 "
b10 !
b10 "
#3800
b0 !
b0 "
#3850
b10 !
b10 "
#3900
b0 !
b0 "
#3950
b10 !
b10 "
#4000
b0 !
b0 "
#4050
b10 !
b10 "
#4100
b0 !
b0 "
#4150
b10 !
b10 "
#4200
b0 !
b0 "
#4250
b10 !
b10 "
b11 !
b11 "
#4300
b1 !
b1 "
#4350
b11 !
b11 "
b10 !
b10 "
#4400
b0 !
b0 "
#4450
b10 !
b10 "
b11 !
b11 "
#4500
b1 !
b1 "
#4550
b11 !
b11 "
#4600
b1 !
b1 "
#4650
b11 !
b11 "
b10 !
b10 "
#4700
b0 !
b0 "
#4750
b10 !
b10 "
b11 !
b11 "
#4800
b1 !
b1 "
#4850
b11 !
b11 "
#4900
b1 !
b1 "
#4950
b11 !
b11 "
#5000
b1 !
b1 "
#5050
b11 !
b11 "
#5100
b1 !
b1 "
#5150
b11 !
b11 "
#5200
b1 !
b1 "
#5250
b11 !
b11 "
#5300
b1 !
b1 "
#5350
b11 !
b11 "
#5400
b1 !
b1 "
#5450
b11 !
b11 "
#5500
b1 !
b1 "
#5550
b11 !
b11 "
#5600
b1 !
b1 "
#5650
b11 !
b11 "
b10 !
b10 "
#5700
b0 !
b0 "
#5750
b10 !
b10 "
#5800
b0 !
b0 "
#5850
b10 !
b10 "
b11 !
b11 "
#5900
b1 !
b1 "
#5950
b11 !
b11 "
#6000
b1 !
b1 "
#6050
b11 !
b11 "
b10 !
b10 "
#6100
b0 !
b0 "
#6150
b10 !
b10 "
#6200
b0 !
b0 "
#6250
b10 !
b10 "
b11 !
b11 "
#6300
b1 !
b1 "
#6350
b11 !
b11 "
#6400
b1 !
b1 "
#6450
b11 !
b11 "
#6500
b1 !
b1 "
#6550
b11 !
b11 "
#6600
b1 !
b1 "
#6650
b11 !
b11 "
#6700
b1 !
b1 "
#6750
b11 !
b11 "
#6800
b1 !
b1 "
#6850
b11 !
b11 "
#6900
b1 !
b1 "
#6950
b11 !
b11 "
#7000
b1 !
b1 "
#7050
b11 !
b11 "
b10 !
b10 "
#7100
b0 !
b0 "
#7150
b10 !
b10 "
b11 !
b11 "
#7200
b1 !
b1 "
#7250
b11 !
b11 "
#7300
b1 !
b1 "
#7350
b11 !
b11 "
b10 !
b10 "
#7400
b0 !
b0 "
#7450
b10 !
b10 "
b11 !
b11 "
#7500
b1 !
b1 "
#7550
b11 !
b11 "
b10 !
b10 "
#7600
b0 !
b0 "
#7650
b10 !
b10 "
#7700
b0 !
b0 "
#7750
b10 !
b10 "
#7800
b0 !
b0 "
#7850
b10 !
b10 "
b11 !
b11 "
#7900
b1 !
b1 "
#7950
b11 !
b11 "
b10 !
b10 "
#8000
b0 !
b0 "
#8050
b10 !
b10 "
b11 !
b11 "
#8100
b1 !
b1 "
#8150
b11 !
b11 "
#8200
b1 !
b1 "
#8250
b11 !
b11 "
#8300
b1 !
b1 "
#8350
b11 !
b11 "
#8400
b1 !
b1 "
#8450
b11 !
b11 "
#8500
b1 !
b1 "
#8550
b11 !
b11 "
b10 !
b10 "
#8600
b0 !
b0 "
#8650
b10 !
b10 "
b11 !
b11 "
#8700
b1 !
b1 "
#8750
b11 !
b11 "
b10 !
b10 "
#8800
b0 !
b0 "
#8850
b10 !
b10 "
b11 !
b11 "
#8900
b1 !
b1 "
#8950
b11 !
b11 "
b10 !
b10 "
#9000
b0 !
b0 "
#9050
b10 !
b10 "
#9100
b0 !
b0 "
#9150
b10 !
b10 "
b11 !
b11 "
#9200
b1 !
b1 "
#9250
b11 !
b11 "
b10 !
b10 "
#9300
b0 !
b0 "
#9350
b10 !
b10 "
#9400
b0 !
b0 "
#9450
b10 !
b10 "
#9500
b0 !
b0 "
#9550
b10 !
b10 "
b11 !
b11 "
#9600
b1 !
b1 "
